…
``` r
(metadata <- read_tsv("/Volumes/Storage/dmel-full-story/metadata.tsv"))
```

    ## Rows: 585 Columns: 9
    ## ── Column specification ────────────────────────────────────────────────────────
    ## Delimiter: "\t"
    ## chr (6): Sample, strain, publication, study, study_id, location
    ## dbl (3): year, lat, lon
    ## 
    ## ℹ Use `spec()` to retrieve the full column specification for this data.
    ## ℹ Specify the column types or set `show_col_types = FALSE` to quiet this message.

    ## # A tibble: 585 × 9
    ##    Sample      strain   publication    study study_id  year location   lat   lon
    ##    <chr>       <chr>    <chr>          <chr> <chr>    <dbl> <chr>    <dbl> <dbl>
    ##  1 SRR23876563 H10      https://doi.o… PRJN… Shpak20…  1815 Lund, S…    55    13
    ##  2 SRR23876564 H4       https://doi.o… PRJN… Shpak20…  1815 Lund, S…    55    13
    ##  3 SRR23876566 H6       https://doi.o… PRJN… Shpak20…  1815 Smaland…    60    15
    ##  4 SRR23876582 H13      https://doi.o… PRJN… Shpak20…  1815 Lund, S…    55    13
    ##  5 SRR23876583 H12      https://doi.o… PRJN… Shpak20…  1815 Lund, S…    55    13
    ##  6 SRR23876584 H11      https://doi.o… PRJN… Shpak20…  1815 Lund, S…    55    13
    ##  7 SRR23876562 H9       https://doi.o… PRJN… Shpak20…  1850 Passau,…    49    13
    ##  8 SRR23876569 H25      https://doi.o… PRJN… Shpak20…  1850 Passau,…    49    13
    ##  9 SRR23876565 H5       https://doi.o… PRJN… Shpak20…  1875 Zealand…    55    12
    ## 10 ERR6474638  Oregon-R https://doi.o… PRJN… Burny20…  1925 <NA>        NA    NA
    ## # ℹ 575 more rows
…
ggsave(output, plot_snps, height = 20)

diagnostic_snps
}
```

``` r
(blood_diagnostic <- find_diagnostic("SRR23876563", "SRR8494428", blood, "/Volumes/Storage/dmel-full-story/diagnostic_snps/blood.png"))
```

    ## Saving 7 x 20 in image

    ## Warning: Removed 4 rows containing missing values (`position_stack()`).

    ## # A tibble: 66 × 6
    ##    TE      pos new_allele new_maf old_allele old_maf
    ##    <chr> <dbl> <chr>        <dbl> <chr>        <dbl>
    ##  1 Blood    77 G            0.794 A                1
    ##  2 Blood   117 T            0.788 C                1
    ##  3 Blood   133 C            0.771 T                1
    ##  4 Blood   229 G            0.852 A                1
    ##  5 Blood   425 T            0.848 C                1
    ##  6 Blood   456 T            0.844 C                1
    ##  7 Blood   471 G            0.861 A                1
    ##  8 Blood   472 G            0.857 A                1
    ##  9 Blood   479 T            0.854 G                1
    ## 10 Blood   494 G            0.837 A                1
    ## # ℹ 56 more rows

``` r
(tirant_diagnostic <- find_diagnostic("ERR6474638", "SRR8494428", tirant, "/Volumes/Storage/dmel-full-story/diagnostic_snps/tirant.png"))
```

    ## Saving 7 x 20 in image

    ## Warning: Removed 384 rows containing missing values (`position_stack()`).

    ## # A tibble: 90 × 6
    ##    TE       pos new_allele new_maf old_allele old_maf
    ##    <chr>  <dbl> <chr>        <dbl> <chr>        <dbl>
    ##  1 Tirant    26 C            0.755 T                1
    ##  2 Tirant  1225 C            0.792 T                1
    ##  3 Tirant  2362 C            0.800 T                1
    ##  4 Tirant  2390 T            0.755 C                1
    ##  5 Tirant  2395 C            0.737 T                1
    ##  6 Tirant  2403 A            0.748 G                1
    ##  7 Tirant  2413 G            0.741 T                1
    ##  8 Tirant  2421 T            0.750 A                1
    ##  9 Tirant  2425 C            0.740 T                1
    ## 10 Tirant  2446 T            0.748 A                1
    ## # ℹ 80 more rows

``` r
(Iele_diagnostic <- find_diagnostic("ERR6474638", "SRR8494428", Iele, "/Volumes/Storage/dmel-full-story/diagnostic_snps/Iele.png"))
```

    ## Saving 7 x 20 in image

    ## Warning: Removed 24 rows containing missing values (`position_stack()`).

    ## # A tibble: 98 × 6
    ##    TE        pos new_allele new_maf old_allele old_maf
    ##    <chr>   <dbl> <chr>        <dbl> <chr>        <dbl>
    ##  1 DMIFACA    37 T            0.527 A            0.997
    ##  2 DMIFACA   131 T            0.531 C            0.966
    ##  3 DMIFACA   401 T            0.588 C            0.956
    ##  4 DMIFACA   448 A            0.504 T            0.998
    ##  5 DMIFACA  1115 C            0.589 T            1    
    ##  6 DMIFACA  1133 A            0.552 C            0.954
    ##  7 DMIFACA  1156 A            0.513 C            0.974
    ##  8 DMIFACA  1198 A            0.515 G            0.998
    ##  9 DMIFACA  1361 T            0.509 G            0.970
    ## 10 DMIFACA  1403 A            0.619 G            0.964
    ## # ℹ 88 more rows

``` r
(souslik_diagnostic <- find_diagnostic("ERR6474638", "SRR8494428", souslik, "/Volumes/Storage/dmel-full-story/diagnostic_snps/souslik.png"))
```

    ## Saving 7 x 20 in image

    ## Warning: Removed 136 rows containing missing values (`position_stack()`).

    ## # A tibble: 181 × 6
    ##    TE        pos new_allele new_maf old_allele old_maf
    ##    <chr>   <dbl> <chr>        <dbl> <chr>        <dbl>
    ##  1 Souslik   244 A            0.800 G                1
    ##  2 Souslik   310 C            0.797 G                1
    ##  3 Souslik   328 G            0.803 T                1
    ##  4 Souslik   329 A            0.800 G                1
    ##  5 Souslik   333 A            0.803 G                1
    ##  6 Souslik   402 A            0.815 G                1
    ##  7 Souslik   415 G            0.786 T                1
    ##  8 Souslik   445 C            0.758 A                1
    ##  9 Souslik   450 T            0.758 G                1
    ## 10 Souslik   464 A            0.766 G                1
    ## # ℹ 171 more rows

``` r
(transib_diagnostic <- find_diagnostic("ERR6474638", "SRR8494428", transib, "/Volumes/Storage/dmel-full-story/diagnostic_snps/transib.png"))
```

    ## Saving 7 x 20 in image

    ## Warning: Removed 96 rows containing missing values (`position_stack()`).

    ## # A tibble: 21 × 6
    ##    TE         pos new_allele new_maf old_allele old_maf
    ##    <chr>    <dbl> <chr>        <dbl> <chr>        <dbl>
    ##  1 Transib1   182 A            0.853 C            1    
    ##  2 Transib1  1119 C            0.878 A            1    
    ##  3 Transib1  1124 T            0.882 A            1    
    ##  4 Transib1  1430 A            0.824 G            1    
    ##  5 Transib1  1438 A            0.832 G            1    
    ##  6 Transib1  1554 A            0.829 T            1    
    ##  7 Transib1  1806 T            0.869 C            1    
    ##  8 Transib1  1848 G            0.815 A            0.988
    ##  9 Transib1  2168 T            0.852 G            1    
    ## 10 Transib1  2288 G            0.853 A            1    
    ## # ℹ 11 more rows

``` r
(te412_diagnostic <- find_diagnostic("SRR23876563", "SRR8494428", te412, "/Volumes/Storage/dmel-full-story/diagnostic_snps/412.png"))
```

    ## Saving 7 x 20 in image

    ## Warning: Removed 84 rows containing missing values (`position_stack()`).

    ## # A tibble: 30 × 6
    ##       TE   pos new_allele new_maf old_allele old_maf
    ##    <dbl> <dbl> <chr>        <dbl> <chr>        <dbl>
    ##  1   412  2608 A            0.871 G                1
    ##  2   412  2629 G            0.868 T                1
    ##  3   412  2660 C            0.885 T                1
    ##  4   412  2685 C            0.898 A                1
    ##  5   412  2711 A            0.884 T                1
    ##  6   412  3575 C            0.891 T                1
    ##  7   412  3788 C            0.890 T                1
    ##  8   412  3861 C            0.892 T                1
    ##  9   412  3912 C            0.884 A                1
    ## 10   412  4034 A            0.886 G                1
    ## # ℹ 20 more rows
…
``` r
(spoink_diagnostic <- find_diagnostic("ERR6474638", "SRR8494428", spoink, "/Volumes/Storage/dmel-full-story/diagnostic_snps/spoink.png"))
```

    ## Saving 7 x 20 in image

    ## Warning: Removed 320 rows containing missing values (`position_stack()`).

    ## # A tibble: 97 × 6
    ##    TE       pos new_allele new_maf old_allele old_maf
    ##    <chr>  <dbl> <chr>        <dbl> <chr>        <dbl>
    ##  1 Spoink  2130 G            0.786 T            1    
    ##  2 Spoink  2133 C            0.783 T            1    
    ##  3 Spoink  2139 T            0.758 C            1    
    ##  4 Spoink  2145 C            0.751 T            1    
    ##  5 Spoink  2163 A            0.754 G            1    
    ##  6 Spoink  2181 T            0.850 C            1    
    ##  7 Spoink  2183 A            0.851 G            1    
    ##  8 Spoink  2232 T            0.889 C            1    
    ##  9 Spoink  2238 T            0.857 A            1    
    ## 10 Spoink  2243 C            0.838 A            0.986
    ## # ℹ 87 more rows
…
``` r
(invaders <- read_csv("/Volumes/Storage/dmel-full-story/analysis/csv/new-TEs-v4.csv", show_col_types = FALSE) %>% filter(Sample!="Sample") %>% type_convert())
```

    ## 
    ## ── Column specification ────────────────────────────────────────────────────────
    ## cols(
    ##   Sample = col_character(),
    ##   TE = col_character(),
    ##   All_reads = col_double(),
    ##   HQ_reads = col_double()
    ## )

    ## # A tibble: 6,996 × 4
    ##    Sample     TE       All_reads HQ_reads
    ##    <chr>      <chr>        <dbl>    <dbl>
    ##  1 ERR6474638 412          52.3     42.6 
    ##  2 ERR6474638 Blood        28.6     25.1 
    ##  3 ERR6474638 DMIFACA      17.9     13.3 
    ##  4 ERR6474638 Hobo          4.06     2.13
    ##  5 ERR6474638 Micropia      0.1      0   
    ##  6 ERR6474638 Opus         22.7     18.8 
    ##  7 ERR6474638 PPI251        0        0   
    ##  8 ERR6474638 Shellder      0.13     0.01
    ##  9 ERR6474638 Souslik       3.15     2.1 
    ## 10 ERR6474638 Spoink        0.83     0.1 
    ## # ℹ 6,986 more rows

``` r
(final_dataset <- left_join(invaders, oldness, by=c("Sample","TE")) %>% mutate(reinvasion = ifelse(TE %in% c("PPI251","Opus"), FALSE, TRUE), TE=case_when(TE=="DMIFACA"~"I-element", TE=="PPI251" ~ "P-element", TRUE ~ TE)) %>% inner_join(metadata, by="Sample") %>% filter(TE!="Shellder"))
```

    ## # A tibble: 6,413 × 14
    ##    Sample     TE    All_reads HQ_reads new_alleles reinvasion strain publication
    ##    <chr>      <chr>     <dbl>    <dbl>       <dbl> <lgl>      <chr>  <chr>      
    ##  1 ERR6474638 412       52.3     42.6     0.956    TRUE       Orego… https://do…
    ##  2 ERR6474638 Blood     28.6     25.1     0.863    TRUE       Orego… https://do…
    ##  3 ERR6474638 I-el…     17.9     13.3     0.00531  TRUE       Orego… https://do…
    ##  4 ERR6474638 Hobo       4.06     2.13    0.000458 TRUE       Orego… https://do…
    ##  5 ERR6474638 Micr…      0.1      0       0.00266  TRUE       Orego… https://do…
    ##  6 ERR6474638 Opus      22.7     18.8    NA        FALSE      Orego… https://do…
    ##  7 ERR6474638 P-el…      0        0      NA        FALSE      Orego… https://do…
    ##  8 ERR6474638 Sous…      3.15     2.1     0.00231  TRUE       Orego… https://do…
    ##  9 ERR6474638 Spoi…      0.83     0.1     0.000187 TRUE       Orego… https://do…
    ## 10 ERR6474638 Tira…      0.48     0.08    0.00107  TRUE       Orego… https://do…
    ## # ℹ 6,403 more rows
    ## # ℹ 6 more variables: study <chr>, study_id <chr>, year <dbl>, location <chr>,
    ## #   lat <dbl>, lon <dbl>
…
