…
h_color$species <- factor(h_color$species, levels=sortorder)
h_color$te <- factor(h_color$te, levels=teorder)
h_color$group <- factor(h_color$group, levels=grouporder)

h_color
```

    ## # A tibble: 2,937 × 9
    ##    te        species     similarity species_unique label group RGB   final_group
    ##    <fct>     <fct>            <dbl> <fct>          <chr> <fct> <chr> <chr>      
    ##  1 I-element D.gunungco…     0.317  D.gunungcola   <NA>  no TE <NA>  no TE      
    ##  2 I-element D.neocorda…     0.0894 D.neocordata   D.neo D.sa… #666… D.saltans …
    ##  3 I-element D.ananassae     0.317  D.ananassae    <NA>  no TE <NA>  no TE      
    ##  4 I-element D.buzzatii      0.0738 D.buzzatii     <NA>  no TE <NA>  no TE      
    ##  5 I-element D.melanoga…     0.992  D.mel.es.ten   D.mel D.me… #CC0… D.melanoga…
    ##  6 I-element D.phalerata     0.108  D.phalerata    D.pha othe… #BEB… other dros…
    ##  7 I-element D.putrida       0.0228 D.putrida      <NA>  no TE <NA>  no TE      
    ##  8 I-element D.pseuan.n…     0.468  D.pseuan.nigr… <NA>  no TE <NA>  no TE      
    ##  9 I-element D.takahash…     0.0423 D.takahashii   <NA>  no TE <NA>  no TE      
    ## 10 I-element H.trivitta…     0.0484 H.trivittata   <NA>  no TE <NA>  no TE      
    ## # ℹ 2,927 more rows
    ## # ℹ 1 more variable: ancestry <chr>
…
``` r
#pdf(file="/Volumes/Storage/dmel-full-story/RepeatMasker/dmel-full-story-origin-vertical.pdf",width=12,height=12)
#plot(p)
#dev.off()

#ggsave("/Volumes/Storage/dmel-full-story/RepeatMasker/dmel-full-story-origin-vertical.png",p,width=7,height=12)
```

``` r
h %>% filter(te=="Micropia") %>% arrange(desc(similarity))
```

    ## # A tibble: 267 × 3
    ##    te       species             similarity
    ##    <fct>    <fct>                    <dbl>
    ##  1 Micropia D.mel.TOM008             1    
    ##  2 Micropia D.mel.ral176             0.827
    ##  3 Micropia D.mel.ral91              0.827
    ##  4 Micropia D.mel.se.sto             0.827
    ##  5 Micropia D.mel.ral737             0.827
    ##  6 Micropia D.mel.es.ten             0.826
    ##  7 Micropia D.mel.ral732             0.824
    ##  8 Micropia D.leonis                 0.730
    ##  9 Micropia D.pseudotalamancana      0.720
    ## 10 Micropia D.buzzatii               0.715
    ## # ℹ 257 more rows
``` r
(tom008 <- read_tsv("/Volumes/Storage/dmel-full-story/RepeatMasker/output/D.mel.TOM008.fa.ori.out.clean", col_names = c("rm","SW","pid","contig","qstart","qend","strand","te","rstart","rend","score","strain")) %>% filter(te=="Micropia") %>% arrange(desc(SW)))
```

    ## Rows: 5444 Columns: 12
    ## ── Column specification ────────────────────────────────────────────────────────
    ## Delimiter: "\t"
    ## chr (4): rm, contig, strand, te
    ## dbl (7): SW, pid, qstart, qend, rstart, rend, score
    ## lgl (1): strain
    ## 
    ## ℹ Use `spec()` to retrieve the full column specification for this data.
    ## ℹ Specify the column types or set `show_col_types = FALSE` to quiet this message.

    ## # A tibble: 412 × 12
    ##    rm       SW   pid contig qstart   qend strand te    rstart  rend score strain
    ##    <chr> <dbl> <dbl> <chr>   <dbl>  <dbl> <chr>  <chr>  <dbl> <dbl> <dbl> <lgl> 
    ##  1 rm    49866  0.28 CM034… 5.60e6 5.61e6 +      Micr…      1  5360  1    NA    
    ##  2 rm    49611  0.24 CM034… 6.49e6 6.49e6 C      Micr…      1  5360  1    NA    
    ##  3 rm    48960  0.13 CM034… 1.97e7 1.97e7 C      Micr…     12  5360  1    NA    
    ##  4 rm    46625  0.26 CM034… 1.74e7 1.74e7 +      Micr…      1  5360  1    NA    
    ##  5 rm    46138  0.21 CM034… 1.73e7 1.73e7 +      Micr…      1  5360  1    NA    
    ##  6 rm    45815  0.28 CM034… 2.86e6 2.87e6 +      Micr…      1  5360  1    NA    
    ##  7 rm    20771  0.13 CM034… 1.78e7 1.78e7 +      Micr…      1  2367  0.44 NA    
    ##  8 rm    16518  2.22 CM034… 3.03e7 3.03e7 +      Micr…      1  2026  0.38 NA    
    ##  9 rm    13528 29.2  CM034… 1.72e6 1.72e6 +      Micr…    361  4346  0.74 NA    
    ## 10 rm    13236 29.6  CM034… 2.53e7 2.53e7 C      Micr…    361  4390  0.75 NA    
    ## # ℹ 402 more rows
``` r
(ral176 <- read_tsv("/Volumes/Storage/dmel-full-story/RepeatMasker/output/D.mel.ral176.fa.ori.out.clean", col_names = c("rm","SW","pid","contig","qstart","qend","strand","te","rstart","rend","score","strain")) %>% filter(te=="Micropia") %>% arrange(desc(SW)))
```

    ## Rows: 6495 Columns: 12
    ## ── Column specification ────────────────────────────────────────────────────────
    ## Delimiter: "\t"
    ## chr (4): rm, contig, strand, te
    ## dbl (7): SW, pid, qstart, qend, rstart, rend, score
    ## lgl (1): strain
    ## 
    ## ℹ Use `spec()` to retrieve the full column specification for this data.
    ## ℹ Specify the column types or set `show_col_types = FALSE` to quiet this message.

    ## # A tibble: 293 × 12
    ##    rm       SW   pid contig qstart   qend strand te    rstart  rend score strain
    ##    <chr> <dbl> <dbl> <chr>   <dbl>  <dbl> <chr>  <chr>  <dbl> <dbl> <dbl> <lgl> 
    ##  1 rm    41246  0.07 CM034… 1.13e7 1.13e7 +      Micr…      2  4617  1    NA    
    ##  2 rm    41242  0.07 CM034… 2.64e5 2.68e5 C      Micr…      2  4617  1    NA    
    ##  3 rm    41208  0.02 CM034… 6.95e5 7.00e5 +      Micr…      1  4617  1    NA    
    ##  4 rm    41199  0.09 CM034… 1.60e7 1.60e7 +      Micr…      4  4617  1    NA    
    ##  5 rm    41176  0.15 CM034… 1.49e7 1.49e7 +      Micr…      1  4617  1    NA    
    ##  6 rm    41035  0.09 CM034… 9.24e6 9.25e6 C      Micr…      5  4617  1    NA    
    ##  7 rm    41000  0.13 CM034… 2.15e7 2.15e7 +      Micr…      1  4617  1    NA    
    ##  8 rm    40587  0.22 CM034… 2.21e6 2.21e6 +      Micr…     66  4616  0.99 NA    
    ##  9 rm    40185  0.04 CM034… 1.08e7 1.08e7 C      Micr…      6  4617  1    NA    
    ## 10 rm    38598  0.13 CM034… 2.20e6 2.20e6 +      Micr…      1  4617  1    NA    
    ## # ℹ 283 more rows
…
