…
## File import

Read metadata and copynumber estimates

``` r
(invaders <- read_tsv("/Volumes/Storage/dmel-full-story/dataset.tsv", show_col_types = FALSE) %>% mutate(presence = ifelse(HQ_reads>=2.5, "present", "absent")))
```

    ## # A tibble: 6,996 × 15
    ##    Sample     TE    All_reads HQ_reads new_alleles reinvasion strain publication
    ##    <chr>      <chr>     <dbl>    <dbl>       <dbl> <lgl>      <chr>  <chr>      
    ##  1 ERR6474638 412       52.3     42.6     NA       FALSE      Orego… https://do…
    ##  2 ERR6474638 Blood     28.6     25.1      0.863   TRUE       Orego… https://do…
    ##  3 ERR6474638 I-el…     17.9     13.3      0.00531 TRUE       Orego… https://do…
    ##  4 ERR6474638 Hobo       4.06     2.13    NA       FALSE      Orego… https://do…
    ##  5 ERR6474638 Micr…      0.1      0       NA       FALSE      Orego… https://do…
    ##  6 ERR6474638 Opus      22.7     18.8     NA       FALSE      Orego… https://do…
    ##  7 ERR6474638 P-el…      0        0       NA       FALSE      Orego… https://do…
    ##  8 ERR6474638 Shel…      0.13     0.01    NA       FALSE      Orego… https://do…
    ##  9 ERR6474638 Sous…      3.15     2.1      0.00231 TRUE       Orego… https://do…
    ## 10 ERR6474638 Spoi…      0.83     0.1     NA       FALSE      Orego… https://do…
    ## # ℹ 6,986 more rows
    ## # ℹ 7 more variables: study <chr>, study_id <chr>, year <dbl>, location <chr>,
    ## #   lat <dbl>, lon <dbl>, presence <chr>
…
Plot copynumber on map

``` r
(tomap <- invaders_meta %>% select(Sample, study_id, year, lat, lon, TE, HQ_reads, HT) %>% mutate(age = ifelse(year>HT, "after", "before")) %>% na.omit() %>% type_convert())
```

    ## 
    ## ── Column specification ────────────────────────────────────────────────────────
    ## cols(
    ##   Sample = col_character(),
    ##   study_id = col_character(),
    ##   age = col_character()
    ## )

    ## # A tibble: 6,391 × 9
    ##    Sample    study_id  year   lat   lon TE        HQ_reads    HT age   
    ##    <chr>     <chr>    <dbl> <dbl> <dbl> <fct>        <dbl> <dbl> <chr> 
    ##  1 SRR097730 Pool2012  2002    -2    14 412          17.9   1900 after 
    ##  2 SRR097730 Pool2012  2002    -2    14 Blood        19.7   1900 after 
    ##  3 SRR097730 Pool2012  2002    -2    14 I-element    28.8   1950 after 
    ##  4 SRR097730 Pool2012  2002    -2    14 Hobo         13.2   1960 after 
    ##  5 SRR097730 Pool2012  2002    -2    14 Micropia      8.53  1985 after 
    ##  6 SRR097730 Pool2012  2002    -2    14 Opus         11.9   1900 after 
    ##  7 SRR097730 Pool2012  2002    -2    14 P-element    14.4   1965 after 
    ##  8 SRR097730 Pool2012  2002    -2    14 Souslik       2.2   2005 before
    ##  9 SRR097730 Pool2012  2002    -2    14 Spoink       11.7   1985 after 
    ## 10 SRR097730 Pool2012  2002    -2    14 Tirant       10.5   1935 after 
    ## # ℹ 6,381 more rows
…
